\relax 
\select@language{english}
\@writefile{toc}{\select@language{english}}
\@writefile{lof}{\select@language{english}}
\@writefile{lot}{\select@language{english}}
\@writefile{toc}{\contentsline {section}{\numberline {1}Introduzione}{4}}
\@writefile{toc}{\contentsline {section}{\numberline {2}Analisi dei requisiti}{5}}
\@writefile{toc}{\contentsline {subsection}{\numberline {2.1}Richiesta del committente in linguaggio naturale}{5}}
\@writefile{toc}{\contentsline {subsection}{\numberline {2.2}Ricerca e sostituzione delle ambiguit\`a}{6}}
\@writefile{toc}{\contentsline {subsection}{\numberline {2.3}Estrazione dei concetti fondamentali}{8}}
\@writefile{toc}{\contentsline {subsection}{\numberline {2.4}Schema scheletro}{9}}
\@writefile{lof}{\contentsline {figure}{\numberline {1}{\ignorespaces Schema Scheletro}}{10}}
\@writefile{toc}{\contentsline {subsection}{\numberline {2.5}Domande e Risposte con il Committente}{10}}
\@writefile{toc}{\contentsline {section}{\numberline {3}Progettazione Concettuale}{12}}
\@writefile{toc}{\contentsline {subsection}{\numberline {3.1}Glossario}{12}}
\@writefile{toc}{\contentsline {subsection}{\numberline {3.2}Entit\`a Account: Sviluppo e Raffinamento}{13}}
\@writefile{lof}{\contentsline {figure}{\numberline {2}{\ignorespaces Sviluppo entit\`a Account}}{14}}
\@writefile{toc}{\contentsline {subsection}{\numberline {3.3}Entit\`a Amministratore, Articolo e Reparto: Sviluppo e Raffinamento}{14}}
\@writefile{lof}{\contentsline {figure}{\numberline {3}{\ignorespaces Sviluppo Amministratore e area articoli}}{15}}
\@writefile{toc}{\contentsline {subsection}{\numberline {3.4}Entit\`a Cliente ed Esame: Sviluppo e Raffinamento}{16}}
\@writefile{lof}{\contentsline {figure}{\numberline {4}{\ignorespaces Sviluppo Cliente e prenotazioni esami}}{16}}
\@writefile{toc}{\contentsline {subsection}{\numberline {3.5}Entit\`a Dipendente, Trattamento e Turno: Sviluppo e Raffinamento}{17}}
\@writefile{lof}{\contentsline {figure}{\numberline {5}{\ignorespaces Sviluppo Dipendente e funzionalit\`a del Dottore}}{18}}
\@writefile{toc}{\contentsline {subsection}{\numberline {3.6}Schema concettuale}{18}}
\@writefile{lof}{\contentsline {figure}{\numberline {6}{\ignorespaces Schema concettuale finale}}{19}}
\@writefile{toc}{\contentsline {subsection}{\numberline {3.7}Vincoli dello Schema Concettuale}{20}}
\@writefile{toc}{\contentsline {section}{\numberline {4}Progettazione Logica}{21}}
\@writefile{toc}{\contentsline {subsection}{\numberline {4.1}Carico applicativo}{21}}
\@writefile{toc}{\contentsline {subsection}{\numberline {4.2}Descrizione delle Funzionalit\`a Principali}{23}}
\@writefile{toc}{\contentsline {subsubsection}{\numberline {4.2.1}Prenotazione di un Esame - Cliente}{23}}
\@writefile{lof}{\contentsline {figure}{\numberline {7}{\ignorespaces Schema di navigazione per la prenotazione di un esame}}{24}}
\@writefile{toc}{\contentsline {subsubsection}{\numberline {4.2.2}Richiesta di un nuovo Ordine di Articoli - Amministratore}{25}}
\@writefile{lof}{\contentsline {figure}{\numberline {8}{\ignorespaces Schema di navigazione per la richiesta di un ordine}}{26}}
\@writefile{toc}{\contentsline {subsubsection}{\numberline {4.2.3}Controllo dei Turni Giornalieri - Dipendenti}{27}}
\@writefile{lof}{\contentsline {figure}{\numberline {9}{\ignorespaces Schema di navigazione per il controllo dei turni}}{27}}
\@writefile{toc}{\contentsline {subsubsection}{\numberline {4.2.4}Gestione Cartella Clinica e Trattamenti - Dottore}{28}}
\@writefile{lof}{\contentsline {figure}{\numberline {10}{\ignorespaces Schema di navigazione per la creazione di una cartella clinica e la prescrizione di un trattamento}}{29}}
\@writefile{lof}{\contentsline {figure}{\numberline {11}{\ignorespaces Schema di navigazione per la lettura o modifica di una cartella clinica}}{30}}
\@writefile{toc}{\contentsline {subsubsection}{\numberline {4.2.5}Aggiornamento Automatico Turni Giornalieri - Sistema}{30}}
\@writefile{lof}{\contentsline {figure}{\numberline {12}{\ignorespaces Schema di navigazione per l'aggiornamento dei Turni}}{31}}
\@writefile{toc}{\contentsline {subsection}{\numberline {4.3}Frequenza delle Operazioni e Tavola degli Accessi}{32}}
\@writefile{toc}{\contentsline {subsection}{\numberline {4.4}Raffinamento dello Schema}{36}}
\@writefile{toc}{\contentsline {subsubsection}{\numberline {4.4.1}Analisi di Efficienza e Miglioramento Schema}{36}}
\@writefile{lof}{\contentsline {figure}{\numberline {13}{\ignorespaces Schema di navigazione lettura CC efficiente}}{38}}
\@writefile{lof}{\contentsline {figure}{\numberline {14}{\ignorespaces Schema di navigazione controllo turni efficiente}}{39}}
\@writefile{lof}{\contentsline {figure}{\numberline {15}{\ignorespaces Schema di navigazione aggiornamento turni efficiente}}{40}}
\@writefile{toc}{\contentsline {subsubsection}{\numberline {4.4.2}Ristrutturazione Logica}{41}}
\@writefile{toc}{\contentsline {paragraph}{Analisi delle ridondanze:}{41}}
\@writefile{toc}{\contentsline {paragraph}{Eliminazione delle generalizzazioni:}{42}}
\@writefile{lof}{\contentsline {figure}{\numberline {16}{\ignorespaces Schema di ristrutturazione delle generalizzazioni}}{42}}
\@writefile{toc}{\contentsline {paragraph}{Eliminazione di attributi composti e multi valore:}{43}}
\@writefile{lof}{\contentsline {figure}{\numberline {17}{\ignorespaces Schema di ristrutturazione dell'attributo Stanza in Entit\`a}}{43}}
\@writefile{toc}{\contentsline {paragraph}{Scelta degli identificatori primari:}{43}}
\@writefile{toc}{\contentsline {subsection}{\numberline {4.5}Schema logico}{43}}
\@writefile{lof}{\contentsline {figure}{\numberline {18}{\ignorespaces Schema Logico}}{44}}
\@writefile{toc}{\contentsline {subsection}{\numberline {4.6}Traduzione Relazionale}{45}}
\@writefile{toc}{\contentsline {subsubsection}{\numberline {4.6.1}Traduzione delle entit\`a}{45}}
\@writefile{toc}{\contentsline {subsubsection}{\numberline {4.6.2}Traduzione delle associazioni}{46}}
\@writefile{toc}{\contentsline {subsubsection}{\numberline {4.6.3}Operazioni in Query SQL}{50}}
\@writefile{toc}{\contentsline {subsection}{\numberline {4.7}Schema Relazionale Finale}{52}}
\@writefile{lof}{\contentsline {figure}{\numberline {19}{\ignorespaces Schema Relazionale Finale}}{53}}
\@writefile{toc}{\contentsline {section}{\numberline {5}Progettazione Fisica}{54}}
\@writefile{toc}{\contentsline {subsection}{\numberline {5.1}Scelta degli Indici}{54}}
\@writefile{toc}{\contentsline {subsection}{\numberline {5.2}Ordinamento su Attributi}{55}}
\@writefile{toc}{\contentsline {subsection}{\numberline {5.3}La Progettazione Fisica applicata a PhpMyAdmin e CakePhp}{56}}
\@writefile{lof}{\contentsline {figure}{\numberline {20}{\ignorespaces PhpMyAdmin: una visione di insieme}}{56}}
\@writefile{toc}{\contentsline {section}{\numberline {6}Archigest: il Progetto su CakePhp e l'Interfaccia Grafica}{58}}
\@writefile{toc}{\contentsline {subsection}{\numberline {6.1}Login come Cliente}{58}}
\@writefile{lof}{\contentsline {figure}{\numberline {21}{\ignorespaces Dashboard del Client non appena effettuato il Login con successo}}{58}}
\@writefile{lof}{\contentsline {figure}{\numberline {22}{\ignorespaces Lista di Esami prenotabili dal Cliente}}{59}}
\@writefile{toc}{\contentsline {subsection}{\numberline {6.2}Login come Impiegato}{59}}
\@writefile{lof}{\contentsline {figure}{\numberline {23}{\ignorespaces Creazione Cartella Clinica da parte di un Dottore}}{60}}
\@writefile{lof}{\contentsline {figure}{\numberline {24}{\ignorespaces Lista dei Turni Giornalieri per Impiegato}}{60}}
\@writefile{toc}{\contentsline {subsection}{\numberline {6.3}Login come Admin}{61}}
\@writefile{lof}{\contentsline {figure}{\numberline {25}{\ignorespaces Dashboard dell'Admin non appena effettuato il login con successo}}{61}}
\@writefile{lof}{\contentsline {figure}{\numberline {26}{\ignorespaces Creazione nuovo Ordine da parte dell'Admin}}{62}}
\@writefile{lof}{\contentsline {figure}{\numberline {27}{\ignorespaces Diagramma di Stato di Funzionamento di Ordine-Articolo-Magazzino}}{63}}
